{
    "testdata": {
        "MockData": {
            "campaignCode": {
                "available": "b65786fe-3570-11ed-9dd1-bec9687c55fc"
            },
            "missionCode": {
                "available": "9b569408-51ad-460b-b435-94cb4badecf8"
            }
        },
        "campaign" : {
            "type" : {
                "target" : "TARGET"
            }
        },
        "db" :{
            "customers" : "customers",
            "campaign_leads" : "campaign_leads",
            "campaign_masters" : "campaign_masters",
            "coupon_pockets" : "coupon_pockets"
        },
        "params" : {
            "utm_source" : {
                "key" : "utm_source",
                "value" : "e2e"
            }
        }
    }
}